{
  "serverCode": 200,
  "uniqueId": "washingtonpost",
  "seoProps": {
    "pageId": "6665748878039842822",
    "pageType": 1,
    "metaParams": {
      "title": "We are a newspaper. (@washingtonpost) Official TikTok | Watch We are a newspaper.'s Newest TikTok Videos",
      "keywords": "We are a newspaper.,washingtonpost,TikTok, ティックトック, tik tok, tick tock, tic tok, tic toc, tictok, тик ток, ticktock",
      "description": "We are a newspaper. (@washingtonpost) on TikTok | 34.5M Likes. 889K Fans. Post subscription discount for TikTok fans👇",
      "canonicalHref": "https://www.tiktok.com/@washingtonpost",
      "robotsContent": "index, follow",
      "applicableDevice": "pc, mobile"
    },
    "itemList": [

    ],
    "jsonldList": [
      [
        "ItemList",
        {
          "itemList": [

          ]
        }
      ],
      [
        "Breadcrumb",
        {
          "urlList": [
            {
              "name": "TikTok",
              "url": "https://www.tiktok.com"
            },
            {
              "name": "We are a newspaper. (@washingtonpost) | TikTok",
              "url": "https://www.tiktok.com/@washingtonpost"
            }
          ]
        }
      ],
      [
        "Person",
        {
          "name": "We are a newspaper.",
          "description": "Post subscription discount for TikTok fans👇",
          "alternateName": "washingtonpost",
          "mainEntityOfPage": {
            "@type": "ProfilePage",
            "@id": "https://www.tiktok.com/@washingtonpost"
          }
        }
      ]
    ]
  },
  "$language": "en",
  "statusCode": 0,
  "statusMsg": "",
  "userInfo": {
    "user": {
      "id": "6665748878039842822",
      "shortId": "0",
      "uniqueId": "washingtonpost",
      "nickname": "We are a newspaper.",
      "avatarLarger": "https://p16-sign-va.tiktokcdn.com/musically-maliva-obj/84fe0cc009704c125641ef190e922fa2~c5_1080x1080.jpeg?x-expires=1614852000&x-signature=ArdASNlIIq0e2uLmqwfTaxrT2MM%3D",
      "avatarMedium": "https://p16-sign-va.tiktokcdn.com/musically-maliva-obj/84fe0cc009704c125641ef190e922fa2~c5_720x720.jpeg?x-expires=1614852000&x-signature=YP%2Bzu2zyhXPkadeXK%2FuX6ylkjWQ%3D",
      "avatarThumb": "https://p16-sign-va.tiktokcdn.com/musically-maliva-obj/84fe0cc009704c125641ef190e922fa2~c5_100x100.jpeg?x-expires=1614852000&x-signature=jUYvMeRid2Cc90qoMdV39JC%2F02A%3D",
      "signature": "Post subscription discount for TikTok fans👇",
      "createTime": 1558449693,
      "verified": true,
      "secUid": "MS4wLjABAAAAeaod-rpanU-AXYvSMZQbzMBMFMopyhtT8Nn4ipzH455Xe43BjqXEWJWai-wndClE",
      "ftc": false,
      "relation": 0,
      "openFavorite": false,
      "bioLink": {
        "link": "washingtonpost.com/dave",
        "risk": 0
      },
      "commentSetting": 0,
      "duetSetting": 0,
      "stitchSetting": 0,
      "privateAccount": false,
      "secret": false,
      "roomId": ""
    },
    "stats": {
      "followerCount": 889000,
      "followingCount": 2,
      "heart": 34500000,
      "heartCount": 34500000,
      "videoCount": 752,
      "diggCount": 0
    },
    "itemList": [

    ]
  },
  "feedConfig": {
    "pageType": 1,
    "secUid": "MS4wLjABAAAAeaod-rpanU-AXYvSMZQbzMBMFMopyhtT8Nn4ipzH455Xe43BjqXEWJWai-wndClE",
    "id": "6665748878039842822",
    "showAvatar": false,
    "emptyTip": "No videos yet"
  },
  "isSSR": true,
  "pageOptions": {
    "footer": {
      "hidden": true,
      "showDownload": false
    },
    "header": {
      "showUpload": true,
      "type": "webapp"
    }
  }
}